<svg width="18" height="18" viewBox="0 0 18 18" fill="none" xmlns="http://www.w3.org/2000/svg">
<line x1="2" y1="16.1421" x2="16.1421" y2="1.99999" stroke="black" stroke-width="2" stroke-linecap="round" stroke-linejoin="round"/>
<line x1="2.41421" y1="2" x2="16.5563" y2="16.1421" stroke="black" stroke-width="2" stroke-linecap="round" stroke-linejoin="round"/>
</svg>
